…
```r
ToothGrowth |> group_by(supp, dose) |> summarize(quantile(len))
```

```
Warning: Returning more (or less) than 1 row per `summarise()` group was deprecated in dplyr 1.1.0.
ℹ Please use `reframe()` instead.
ℹ When switching from `summarise()` to `reframe()`, remember that `reframe()` always returns an ungrouped data frame and adjust accordingly.
[90mCall `lifecycle::last_lifecycle_warnings()` to see where this warning was generated.[39m
```

```
# A tibble: 30 x 3
# Groups:   supp, dose [6]
   supp   dose `quantile(len)`
   <fct> <dbl>           <dbl>
 1 OJ      0.5             8.2
 2 OJ      0.5             9.7
 3 OJ      0.5            12.2
 4 OJ      0.5            16.2
 5 OJ      0.5            21.5
 6 OJ      1              14.5
 7 OJ      1              20.3
 8 OJ      1              23.5
 9 OJ      1              25.6
10 OJ      1              27.3
# … with 20 more rows
```
…
